ABS0527002 BCEDADCACAEBAACABACCCBDACEAA C                                
ABS0527003 BCEBACCACACDAACABACCCBDAEEAADC                                
ABS0527004 BCEADCCACAEBAACABACCCBBBCEAADC                                
ABS0527005 BCEDD?CACAEBAACABACCCBDACEAADC                                
ABS0527006 BCEDDECACAEBAACABAACCBBACBAABC                                
ABS0527007 ACCBEAECCAABECBBBEEABDBABBCBAA                                
ABS0527008 BCEDAECACAEBAACABACCCBBACEAABC                                
ABS0527009 BDEBAECACABBAACABACCCBBACEAABC                                
ABS0527011 BBADAECBCBEAAEBEA ACEBBCCCABEE                                
ABS0527012 BCEDAECACBEBABCEAAECEBBCCEAABE                                
ABS0527013 BCEDAECACAEEAACABACCCBBACEAABC                                
ABS0527014 BCEDAECACAEEAABABACCCBBACEAABC                                
ABS0527015 BCEDAECACAEBAACABACCCBDACEAABC                                
ABS0527018 BCEDAECACABBAACEBACCCBBACCAABC                                
ABS0527020 BCEDAECACAEBAACABACCCBBACEDABA                                
ABS0527021 BCEDAECACAEEAACCAACCCBBACEAABC                                
ABS0527025 BCEDDECACAEEAACABACCCBBAAEAAAC                                
ABS0527026 BCEDACCACABBAACABACCCBBACEAADC                                
ABS0527027 BCEDAECACABBAACABACCCBBACEAAAC                                
ABS0527028 BCEDDECACAEABACEBACCCBBACAAABC                                
ABS0527029 BCEDAECACAEEAACABACCCBBACEAABC                                
ABS0527030 BCEDAECBCAEEAACABADCCABACEAAAC                                
ABS0527031 BCADDECACAEEAACABACCCBBACEAABC                                
ABS0527032 BCEDAECACAEEAACABACCCBBACEAABC                                
ABS0527033 BCEDE CABAEEAACDBAACCBBACDAAE                                 
ABS0527034 BCEDDECACAEEAACACACCCBBAABAAAD                                
ABS0527036 BCEEAECACABBAACABACCCBBACEAABC                                
ABS0527038 BCEDAECAC EBAA EBACCDBBACCAAB                                 
ABS0527039 BAEDCBCACAEEABCEBACDDBBACBACAC                                
ABS0527040 BCEDAECACAEBAACABACCCBDACEAABC                                
ABS0527041 BCEDDCCBCABBAACABACCCBBACEAABC                                
ABS0527042 BCEDDCCACA BAACAAACCCBBACEAABC                                
ABS0527043 BCEDABCACAEBAACEDACCCBBACEAABC                                
ABS0527045 BCEDAECACAEBAACABACCCBBACCEABC                                
ABS0527047 BCEDDECACAEBAACABACCCBBACEAABC                                
ABS0527048 ACCBBE CAAAEECBBBEEABDDABCBBAA                                
ABS0527049 BCEDDECACAEBAABEBACCCBBACCAABC                                
ABS0527050 BCEDAECACAEBAACABACCCBBACEAABC                                
ABS0527051 BCEDAECACAEBAACABACCCBBACEAABC                                
ABS0527052                               ACCDEEECCAABECBBBCCABBBABCCBAA  
ABS0527053 ACCBEEECCAAACCBBBEEABDDABCCBAA                                
ABS0527054 ACCBEEECCAABECBBBEEABDDABCCBAA                                
ABS0527056 BCEEABCACAEBAACABACCCBBACEAABC                                
ABS0527057 BCEDAECACAEBAACABACCCBBACEAABC                                
ABS0527058 ACCBEEECCAABECEDBEEABDDABCCBAA                                
ABS0527059 BCEDAECACABBAACABACCCBBACEAABC                                
ABS0527060 ACCBEEECCAABECBBBEEABBDADCCBAA                                
ABS0527062 BCEDABCACABBAACABACC B AC AABC                                
ABS0527063 BCEDABCACAEB ACABACC BAACDAABC                                
ABS0527064 BCEDDECACAEBAACABACCCBBACEAABC                                
ABS0527065 BCEDDECACAEBAACABACCCBBACEAABC                                
ABS0527066 BCEDDECACAEBAACABADCCBBACEAABB                                
ABS0527067 BCEDAECACAEBAACABACCCBBACEAABC                                
ABS0527069 BCEEDCCDCBBBAACEBACCCBBACDAABC                                
ABS0527070 ACCBECECCAABECBBBEEABDDABCCBAA                                
ABS0527071 DCADDCCABAEBBACEBACCCBBACEAABC                                
ABS0527072 DCADDCCABAEBBACEBACCCBBACEAABC                                
ABS0527073 ACCBECECCAABBCBBBEEABDBABBCBAA                                
ABS0527076 ACCBECEECAABECBBBEEABBBABCCBAA                                
ABS0527077 BCEDAECACBEBAACABACCCEBACCAABC                                
ABS0527079 BCEDAECACAEBAACABACCC BACEAABC                                
ABS0527080 ACCBEAECCAABECBDDEEABDBABACBAA                                
ABS0527081 ACCBEEACCAABECBBBEEABDDABCCBAA                                
ABS0527082 ACCBE ECCAABECBBBEEABDBACCCBAA                                
ABS0527084 BCEDDECACAEBAACABACCCBBACEAABC                                
ABS0527085 BCEDDECACAEBAACABACCCBBACEAABC                                
ABS0527086 BCEDDECACAEBAACABACCCBBACEAABB                                
ABS0527087 BCEDDEABCAEEAACABACCCBBACEAABC                                
ABS0527088 BCEDAECACAEBAACA ACCCB ACEAABC                                
ABS0527089 BCEDDACACAEBAACADACCCEB  E ABC                                
ABS0527090 BCEDAACACAABAACABACCCBBBCEAAAC                                
ABS0527091 BCEDDECACAEBAACEBACCCBBACEAABC                                
ABS0527092 BCEDABCACAEBAACABACCCBBACEAABC                                
ABS0527093 BCEDADCACAEBAACABACCCBBACEAABC                                
ABS0527094 BCEDDECACAEBAACEBACCCBBACEAABC                                
ABS0527095 BCEDDECACAEBBDBEBACCCBBACEAABC                                
ABS0527096 BCEDAECACAEDAACABACCCBBACEAABC                                
ABS0527098 BCEDAECACAEBEACEBACCCBBACEAABC                                
ABS0527099 BCEDAECACAEBAACABACCCBBACEAABC                                
ABS0527100 BCEBAECACAABDCCABACCCBBACEAABC                                
ABS0527101 BCEBAECACAABAACABACCCBBACEAABC                                
ABS0527102 BCEBAECACAABAACABACCCBBACEAABC                                
ABS0527103 BCEDAECACAEDAACABACCCBDACEAABC                                
ABS0527104 BCEDAECCCABBAACABACCCBBACEAABC                                
ABS0527105 BCEDAECACAEBAACABACCCBBACEAABC                                
ABS0527106 ACCBE BBCAABBCBEBEEABDDABECBAA                                
ABS0527107 ACCBBDECCAABECBBBEEABDDAB CBAA                                
ABS0527108 ACCBEDECCAABECBBBEEABBBABECBAA                                
ABS0527109 DCEDAECACAEBAACABACCCBBACEAABC                                
ABS0527110 BCEDAECACAEBAACABACCCBBACEAABC                                
ABS0527111 BCEDAECACAEBAACABACCCBBACEAABCA                               
ABS0527001 BCEDBACCAAEBAABAAACCEBBACEAABC                                
ABS0527083 BCEDDDCBCAEBAACABACCCBDACEAABC                                
ABS0527078 BCEDDECACAEBAACABACCCBBACEAABB                                
ABS0527074 BCEBAECACAEBAAAABAACCBBACEAABC                                
ABS0527068 BCEBDBCACAEBAACABACCCBBACDAABC                                
ABS0527022 BCEDDECACAEEAACABACCCBBAABAAAD                                
ABS0527023 BCEDAEEACAEEAACABACCCBBACEAABC                                
ABS0527024 BCEDAEEACAEEAACABAACCBBACBAABC                                
ABS0527017 BCEDAECACAEBAACEDACCCCBACEAABC                                
ABS0527016 BCEDAECACAEBAACEBACCCBBACEAABC                                
ABS0527019 BCADDECACABEAABEBAADCBBACEAAEA                                
ABS0527046 BCEDAECACABBAACABACCCBBACEAABC                                
ABS0527001 BCEDBACCAAEBAABAAACCEBBACEAABC                                
ABS0527019 BCADDECACABEAABEBAADCBBACEAAEA                                
ABS0527037 BCEDDECACAEBAACEBACCCBBACEAABC                                
ABS0527044 BCEDABCACAEBAACEAACCCBDACEAABC
ABS0527035 BCEDDCCACAEEAACABACCCBBACBAABC
ABS0527010 BCADD CABAEBAACEAACCEBBACEAAEC
ABS0527097 BCEDDBCACAEBAACABACCCBBACEAABC
ABS0527075 BCEBABCACAEBAACABACCCBBACEAABC
ABS0527061                               ACCBEEECCAABECBBBEEABBBACCCBAA