ABS0009017 BCEDAECACABBAACABACCBBBACBACBC                             A  
ABS0009018 BCEDAECABABCAACCCBCBABBACBACBC                                
ABS0009006 BCEDAECACBBBAACEAAC DBBBC  ABC                                
ABS0009005 BCE AECACABBAACABACCBBBACBACBC                                
ABS0009015 BCEDAECAACBAACABACCBBBA CB   C D                              
ABS0009013 BCEDAECBCABBAACABACCBBBACBACBC                                
ABS0009024 BCEDAECACABBAACABACCBBBACBACBC                                
ABS0009022 BCEDAECACABBAACABACCBBBACBACBC                                
ABS0009004 BAEDAECACABBAACA?ACCBBBACBACBC                                
ABS0009002 BCEDAECACABBAACABACCBBBACBACBC                                
ABS0009003 BCEDAECACABBAACABACCBBBACBACBC                                
ABS0009014 BCEDAECACABBAACABACCBBBACBACBC                                
ABS0009001 BAEDAECACABBAACABACCBBBACBACBC                                
ABS0009007 BCEDAECACABBAACABACCBBBACBACBC                                
ABS0009008 BCEDAECACABBAACABACCBBBACBACCC                                
ABS0009016 BCEDAECABABAACABACCBBBBACBACBB                                
ABS0009011 BCEDAEEACABBAACABACCBBBACBACBC                                
ABS0009010 BCEDAECACABBAACABACCBBBACBACBC                                
ABS0009009 BCEDAECACABBAACABACCBDBACBABAC                                
ABS0009020 BCEDAECACABBAACABACCBCBACBACBC                                
ABS0009021 BCEDAECACABBAACABACCBCBACBACBC                                
ABS0009019 BCEDAECAAABBAACACACCBBBACBAACC                                
ABS0009023 BCEDAECAAABBAACACACCBBBACBAACC 
ABS0009012 BCEDAECAAABBAACACACCBBBACBAACC 